…
## Files written

These files have been written to the target directory,
`data/01_test_eps_rule`:

    ## # A tibble: 42 × 4
    ##    path                                  type         size modification_time  
    ##    <fs::path>                            <fct> <fs::bytes> <dttm>             
    ##  1 obs_U_stats_n1000_B1000.rds           file        3.25K 2025-10-01 21:38:43
    ##  2 obs_U_stats_n100_B1000.rds            file        2.42K 2025-10-01 21:37:30
    ##  3 obs_U_stats_n250_B1000.rds            file        2.76K 2025-10-01 21:37:47
    ##  4 obs_U_stats_n500_B1000.rds            file        3.05K 2025-10-01 21:38:04
    ##  5 obs_U_stats_n50_B1000.rds             file        2.18K 2025-10-01 21:37:13
    ##  6 obs_U_stats_n750_B1000.rds            file        3.14K 2025-10-01 21:38:23
    ##  7 permapprox_constr_LLS_n1000_B1000.rds file      378.69K 2025-11-03 15:47:51
    ##  8 permapprox_constr_LLS_n100_B1000.rds  file      308.66K 2025-11-03 15:47:49
    ##  9 permapprox_constr_LLS_n250_B1000.rds  file      335.95K 2025-11-03 15:47:50
    ## 10 permapprox_constr_LLS_n500_B1000.rds  file      345.16K 2025-11-03 15:47:51
    ## # ℹ 32 more rows
