…
Counts and shares of approximated p-values smaller than Mann-Whitney U
p-values.

## Files written

    ## # A tibble: 44 × 4
    ##    path                                       type         size modification_time  
    ##    <fs::path>                                 <fct> <fs::bytes> <dttm>             
    ##  1 obs_U_stats_n100_B1000.rds                 file        2.42K 2025-10-02 05:19:12
    ##  2 obs_U_stats_n100_B10000.rds                file        2.42K 2025-10-02 05:20:11
    ##  3 obs_U_stats_n500_B1000.rds                 file        3.04K 2025-10-02 05:20:40
    ##  4 obs_U_stats_n500_B10000.rds                file        3.03K 2025-10-02 05:23:08
    ##  5 permapprox_constr_n100_B10000_ex100.rds    file      228.25K 2025-10-02 05:34:30
    ##  6 permapprox_constr_n100_B10000_ex250.rds    file      354.63K 2025-10-02 05:36:39
    ##  7 permapprox_constr_n100_B10000_exp01000.rds file      921.76K 2025-10-02 05:45:01
    ##  8 permapprox_constr_n100_B10000_exp02500.rds file        2.09M 2025-10-02 05:42:17
    ##  9 permapprox_constr_n100_B1000_ex100.rds     file      159.18K 2025-10-02 05:26:33
    ## 10 permapprox_constr_n100_B1000_ex250.rds     file      302.47K 2025-10-02 05:28:30
    ## # ℹ 34 more rows
