…
## Data generation for asymptotic behavior study

    ## Shape:  -0.2 
    ## Scale:  1 
    ## Sample sizes:  50 100 200 500 1000 5000 10000 50000 
    ## Repetitions:  500

## Files written

These files have been written to the target directory,
`data/01_data_gen`:

    ## # A tibble: 69 × 4
    ##    path                 type         size modification_time  
    ##    <fs::path>           <fct> <fs::bytes> <dttm>             
    ##  1 bound-2.5_n-1000.RDS file        3.61M 2025-05-30 15:06:57
    ##  2 bound-2_n-1000.RDS   file         3.6M 2025-05-30 15:06:57
    ##  3 bound-3.5_n-1000.RDS file        3.62M 2025-05-30 15:06:56
    ##  4 bound-3_n-1000.RDS   file        3.61M 2025-05-30 15:06:57
    ##  5 bound-4.5_n-1000.RDS file        3.62M 2025-05-30 15:06:55
    ##  6 bound-4_n-1000.RDS   file        3.62M 2025-05-30 15:06:56
    ##  7 bound-5.5_n-1000.RDS file        3.62M 2025-05-30 15:06:55
    ##  8 bound-5_n-1000.RDS   file        3.62M 2025-05-30 15:06:55
    ##  9 bound-6_n-1000.RDS   file        3.63M 2025-05-30 15:06:54
    ## 10 shape--0.2_n-100.RDS file      372.09K 2025-06-03 07:20:07
    ## # ℹ 59 more rows
