…
<span style=" font-weight: bold;    border-radius: 4px; padding-right: 4px; padding-left: 4px; background-color: rgba(255, 255, 0, 255) !important;">0.058</span>
</td>

</tr>

</tbody>

</table>

## Files written

These files have been written to the target directory,
`data/02_unconstrained`:

    ## # A tibble: 448 × 4
    ##    path                                type         size modification_time  
    ##    <fs::path>                          <fct> <fs::bytes> <dttm>             
    ##  1 shape--0.2_n-1000_method-LME.RDS    file        8.97K 2025-10-27 17:05:34
    ##  2 shape--0.2_n-1000_method-MLE1D.RDS  file        8.98K 2025-10-27 17:05:34
    ##  3 shape--0.2_n-1000_method-MLE2D.RDS  file        8.96K 2025-10-27 17:05:34
    ##  4 shape--0.2_n-1000_method-MOM.RDS    file        8.95K 2025-10-27 17:05:34
    ##  5 shape--0.2_n-1000_method-NLS2.RDS   file        8.99K 2025-10-27 17:05:34
    ##  6 shape--0.2_n-1000_method-PWM.RDS    file        8.87K 2025-10-27 17:05:34
    ##  7 shape--0.2_n-1000_method-WNLLSM.RDS file        8.98K 2025-10-27 17:05:34
    ##  8 shape--0.2_n-1000_method-ZSE.RDS    file        8.96K 2025-10-27 17:05:35
    ##  9 shape--0.2_n-100_method-LME.RDS     file        9.02K 2025-10-27 17:05:35
    ## 10 shape--0.2_n-100_method-MLE1D.RDS   file        9.01K 2025-10-27 17:05:35
    ## # ℹ 438 more rows
