…
## Constraint validation

### Constraint satisfatcion rate

    ## Number of replicates where constraint is not satisfied:  1500

    ## # A tibble: 42 × 3
    ##    method data_bound valid_constr_rate
    ##    <chr>       <dbl>             <dbl>
    ##  1 LME           2                   1
    ##  2 LME           2.5                 1
    ##  3 LME           3                   1
    ##  4 LME           3.5                 1
    ##  5 LME           4                   1
    ##  6 LME           4.5                 1
    ##  7 LME           5                   1
    ##  8 MLE1D         2                   1
    ##  9 MLE1D         2.5                 1
    ## 10 MLE1D         3                   1
    ## # ℹ 32 more rows
…
## Files written

These files have been written to the target directory,
`data/04_misspecification`:

    ## # A tibble: 72 × 4
    ##    path                               type         size modification_time  
    ##    <fs::path>                         <fct> <fs::bytes> <dttm>             
    ##  1 bound-2.5_n-1000_method-LME.RDS    file        28.1K 2025-11-05 10:12:42
    ##  2 bound-2.5_n-1000_method-MLE1D.RDS  file        30.2K 2025-11-05 10:13:23
    ##  3 bound-2.5_n-1000_method-MLE2D.RDS  file        27.5K 2025-11-05 10:14:15
    ##  4 bound-2.5_n-1000_method-MOM.RDS    file        16.6K 2025-11-05 10:31:18
    ##  5 bound-2.5_n-1000_method-NLS2.RDS   file        30.1K 2025-11-05 10:15:41
    ##  6 bound-2.5_n-1000_method-PWM.RDS    file        16.5K 2025-11-05 10:12:02
    ##  7 bound-2.5_n-1000_method-WNLLSM.RDS file          28K 2025-11-05 10:29:31
    ##  8 bound-2.5_n-1000_method-ZSE.RDS    file        31.1K 2025-11-05 10:30:04
    ##  9 bound-2_n-1000_method-LME.RDS      file        27.8K 2025-11-05 10:13:17
    ## 10 bound-2_n-1000_method-MLE1D.RDS    file        30.1K 2025-11-05 10:13:57
    ## # ℹ 62 more rows
