…
## Files written

These files have been written to the target directory,
`data/05_eval_point`:

    ## # A tibble: 416 × 4
    ##    path                                type         size modification_time  
    ##    <fs::path>                          <fct> <fs::bytes> <dttm>             
    ##  1 shape--0.2_n-1000_eps--1_LME.RDS    file        20.5K 2025-10-27 16:52:49
    ##  2 shape--0.2_n-1000_eps--1_MLE1D.RDS  file        20.5K 2025-10-27 16:52:49
    ##  3 shape--0.2_n-1000_eps--1_MLE2D.RDS  file        20.5K 2025-10-27 16:52:49
    ##  4 shape--0.2_n-1000_eps--1_NLS2.RDS   file        20.5K 2025-10-27 16:52:49
    ##  5 shape--0.2_n-1000_eps--1_WNLLSM.RDS file        20.5K 2025-10-27 16:52:49
    ##  6 shape--0.2_n-1000_eps--1_ZSE.RDS    file        20.5K 2025-10-27 16:52:49
    ##  7 shape--0.2_n-1000_eps-0.1_LME.RDS   file        18.9K 2025-10-27 16:52:49
    ##  8 shape--0.2_n-1000_eps-0.1_MLE1D.RDS file          20K 2025-10-27 09:49:09
    ##  9 shape--0.2_n-1000_eps-0.1_MLE2D.RDS file        20.3K 2025-10-27 16:52:49
    ## 10 shape--0.2_n-1000_eps-0.1_NLS2.RDS  file          20K 2025-10-27 16:52:49
    ## # ℹ 406 more rows
