…
## Files written

These files have been written to the target directory,
`data/03_find_eps_rule`:

    ## # A tibble: 96 × 4
    ##    path                                        type         size modification_time  
    ##    <fs::path>                                  <fct> <fs::bytes> <dttm>             
    ##  1 obs_t_stats_n1000_B1000.rds                 file        7.46K 2025-09-27 11:46:29
    ##  2 obs_t_stats_n100_B1000.rds                  file        7.54K 2025-09-27 11:43:22
    ##  3 obs_t_stats_n250_B1000.rds                  file        7.51K 2025-09-27 11:44:01
    ##  4 obs_t_stats_n500_B1000.rds                  file         7.5K 2025-09-27 11:44:45
    ##  5 obs_t_stats_n50_B1000.rds                   file        7.56K 2025-09-27 11:42:47
    ##  6 obs_t_stats_n750_B1000.rds                  file        7.46K 2025-09-27 11:45:35
    ##  7 permapprox_constr_factor005_n1000_B1000.rds file      823.85K 2025-11-02 12:27:41
    ##  8 permapprox_constr_factor005_n100_B1000.rds  file      830.01K 2025-11-02 12:27:46
    ##  9 permapprox_constr_factor005_n250_B1000.rds  file      828.16K 2025-11-02 12:27:46
    ## 10 permapprox_constr_factor005_n500_B1000.rds  file       831.7K 2025-11-02 12:27:44
    ## # ℹ 86 more rows
