…
# Files written

    ## # A tibble: 44 × 4
    ##    path                                       type         size modification_time  
    ##    <fs::path>                                 <fct> <fs::bytes> <dttm>             
    ##  1 obs_t_stats_n100_B1000.rds                 file        7.54K 2025-10-01 08:58:46
    ##  2 obs_t_stats_n100_B10000.rds                file        7.54K 2025-10-01 09:01:59
    ##  3 obs_t_stats_n500_B1000.rds                 file         7.5K 2025-10-01 09:02:42
    ##  4 obs_t_stats_n500_B10000.rds                file         7.5K 2025-10-01 09:08:41
    ##  5 permapprox_constr_n100_B10000_ex100.rds    file      960.88K 2025-11-04 10:38:09
    ##  6 permapprox_constr_n100_B10000_ex250.rds    file      960.87K 2025-11-04 10:38:09
    ##  7 permapprox_constr_n100_B10000_exp01000.rds file        3.12M 2025-11-04 10:38:09
    ##  8 permapprox_constr_n100_B10000_exp02500.rds file        7.49M 2025-11-04 10:38:09
    ##  9 permapprox_constr_n100_B1000_ex100.rds     file      829.75K 2025-11-04 10:38:09
    ## 10 permapprox_constr_n100_B1000_ex250.rds     file      829.74K 2025-11-04 10:38:34
    ## # ℹ 34 more rows
…
