…
    ## # A tibble: 1 × 6
    ##   n_samples n_taxa n_non_ebf n_ebf excluded_ebf_one_month excluded_missing_ebf
    ##       <int>  <int>     <int> <int>                  <int>                <int>
    ## 1       554    117       179   375                      3                   35

## dacomp reference selection

    ## # A tibble: 1 × 4
    ##   n_taxa n_reference_taxa n_test_taxa minimal_TA
    ##    <int>            <int>       <int>      <dbl>
    ## 1    117               91          26         50

### Reference score diagnostic

    ## # A tibble: 117 × 4
    ##    taxon                 prevalence score reference_status
    ##    <chr>                      <dbl> <dbl> <fct>           
    ##  1 Phascolarctobacterium    0.0217  0.807 reference       
    ##  2 Veillonella              0.543   2.23  test            
    ##  3 Negativicoccus           0.0469  0.903 reference       
    ##  4 Dialister                0.197   1.04  reference       
    ##  5 Megasphaera              0.0289  0.887 reference       
    ##  6 Anaeroglobus             0.0108  0.726 reference       
    ##  7 Megamonas                0.00903 0.699 reference       
    ##  8 Streptococcus            0.993   1.66  test            
    ##  9 Lactococcus              0.244   1.55  test            
    ## 10 Gemella                  0.431   1.59  test            
    ## # ℹ 107 more rows
…
## Differential abundance results

    ## # A tibble: 117 × 10
    ##    taxon_id           mean_rel_non_ebf mean_rel_ebf mean_clr_non_ebf mean_clr_ebf log2_fc clr_difference prevalence_non_ebf prevalence_ebf taxon
    ##    <chr>                         <dbl>        <dbl>            <dbl>        <dbl>   <dbl>          <dbl>              <dbl>          <dbl> <chr>
    ##  1 Phascolarctobacte…       0.000165    0.0000261             -0.904       -0.855  -2.61          0.0493             0.0223         0.0213 Phas…
    ##  2 Veillonella              0.00496     0.00423                1.85         1.31   -0.229        -0.541              0.620          0.507  Veil…
    ##  3 Negativicoccus           0.000115    0.0000477             -0.810       -0.780  -1.25          0.0309             0.0503         0.0453 Nega…
    ##  4 Dialister                0.0000800   0.0000530             -0.517       -0.446  -0.585         0.0714             0.190          0.2    Dial…
    ##  5 Megasphaera              0.0000359   0.000284              -0.869       -0.825   2.95          0.0441             0.0447         0.0213 Mega…
    ##  6 Anaeroglobus             0.0000223   0.00000560            -0.964       -0.894  -1.82          0.0698             0.0168         0.008  Anae…
    ##  7 Megamonas                0.00000938  0.000000895           -0.984       -0.906  -2.45          0.0780             0.0112         0.008  Mega…
    ##  8 Streptococcus            0.0810      0.0334                 6.31         5.67   -1.28         -0.640              1              0.989  Stre…
    ##  9 Lactococcus              0.00802     0.0000543              0.429       -0.529  -7.18         -0.957              0.374          0.181  Lact…
    ## 10 Gemella                  0.000881    0.000475               0.497        0.516  -0.892         0.0196             0.447          0.424  Geme…
    ## # ℹ 107 more rows
…
Taxa with raw p-values below 0.01 in at least one selected differential
abundance analysis.

## Volcano plot

The volcano plot compares the empirical dacomp p-values with 1000 and
`10^7` permutations to the constrained permApprox refinement based on
the 1000 permutation run. The left panel highlights the empirical
p-value bound for 1000 permutations, while the permApprox panel shows
how the GPD tail approximation can resolve smaller p-values from the
same empirical permutation sample.

    ## # A tibble: 351 × 26
    ##    taxon_id   statistic   p_raw   p_adj is_reference method n_perm constraint exceed0 method_used mean_rel_non_ebf mean_rel_ebf mean_clr_non_ebf
    ##    <chr>          <dbl>   <dbl>   <dbl> <lgl>        <chr>   <dbl> <chr>        <dbl> <chr>                  <dbl>        <dbl>            <dbl>
    ##  1 Phascolar…    0.290  7.84e-1 1       TRUE         dacomp   1000 <NA>            NA <NA>              0.000165    0.0000261             -0.904
    ##  2 Veillonel…    3.28   5.39e-2 0.158   FALSE        dacomp   1000 <NA>            NA <NA>              0.00496     0.00423                1.85 
    ##  3 Negativic…    0.141  7.65e-1 1       TRUE         dacomp   1000 <NA>            NA <NA>              0.000115    0.0000477             -0.810
    ##  4 Dialister     0.0972 1   e+0 1       TRUE         dacomp   1000 <NA>            NA <NA>              0.0000800   0.0000530             -0.517
    ##  5 Megasphae…    0.956  5.43e-1 1       TRUE         dacomp   1000 <NA>            NA <NA>              0.0000359   0.000284              -0.869
    ##  6 Anaeroglo…    0.477  1   e+0 1       TRUE         dacomp   1000 <NA>            NA <NA>              0.0000223   0.00000560            -0.964
    ##  7 Megamonas     0.477  1   e+0 1       TRUE         dacomp   1000 <NA>            NA <NA>              0.00000938  0.000000895           -0.984
    ##  8 Streptoco…   16.7    9.99e-4 0.00677 FALSE        dacomp   1000 <NA>            NA <NA>              0.0810      0.0334                 6.31 
    ##  9 Lactococc…   28.8    9.99e-4 0.00677 FALSE        dacomp   1000 <NA>            NA <NA>              0.00802     0.0000543              0.429
    ## 10 Gemella       0.632  4.61e-1 1       FALSE        dacomp   1000 <NA>            NA <NA>              0.000881    0.000475               0.497
    ## # ℹ 341 more rows
    ## # ℹ 13 more variables: mean_clr_ebf <dbl>, log2_fc <dbl>, clr_difference <dbl>, prevalence_non_ebf <dbl>, prevalence_ebf <dbl>, taxon <chr>,
    ## #   method_label <chr>, panel_label <fct>, p_plot_raw <dbl>, neglog10_p_raw <dbl>, significant <lgl>, direction <fct>, neglog10_p_display <dbl>
…
## Rarefied count diagnostics

dacomp internally rarefies the count table before computing the
Wilcoxon-type statistics. The following boxplots show the corresponding
dacomp-rarefied counts directly for the same taxa labelled in the
volcano plot. Zeros are shown as individual points, while the boxplots
are computed from the non-zero counts only to make the positive count
distributions easier to compare.

    ## # A tibble: 4,432 × 6
    ##    SampleID group   taxon_id                     rarefied_count taxon                        taxon_plot          
    ##    <chr>    <fct>   <chr>                                 <int> <fct>                        <fct>               
    ##  1 s025647  non-EBF Bifidobacterium                          46 Bifidobacterium              Bifidobacterium     
    ##  2 s025647  non-EBF Blautia                                   2 Blautia                      Blautia             
    ##  3 s025647  non-EBF Enterococcus                             10 Enterococcus                 Enterococcus        
    ##  4 s025647  non-EBF Intestinibacter                           2 Intestinibacter              Intestinibacter     
    ##  5 s025647  non-EBF Lactococcus                               0 Lactococcus                  Lactococcus         
    ##  6 s025647  non-EBF Streptococcus                             4 Streptococcus                Streptococcus       
    ##  7 s025647  non-EBF [Clostridium]_innocuum_group              0 [Clostridium]_innocuum_group [Clostridium]_inn...
    ##  8 s025647  non-EBF [Ruminococcus]_gnavugroup                26 [Ruminococcus]_gnavugroup    [Ruminococcus]_gn...
    ##  9 s023779  non-EBF Bifidobacterium                          58 Bifidobacterium              Bifidobacterium     
    ## 10 s023779  non-EBF Blautia                                   0 Blautia                      Blautia             
    ## # ℹ 4,422 more rows
…
## Files written

These files have been written to the target directory,
`data/08_diff_abundance`:

    ## # A tibble: 38 × 4
    ##    path                                   type         size modification_time  
    ##    <fs::path>                             <fct> <fs::bytes> <dttm>             
    ##  1 dacomp_reference_score_data.csv        file         7.2K 2026-07-06 19:29:12
    ##  2 dacomp_reference_selection.rds         file       87.06K 2026-06-12 18:51:01
    ##  3 dacomp_reference_summary.csv           file           60 2026-07-06 19:29:12
    ##  4 dacomp_res_nperm=1e+03_seed=42.rds     file      277.51K 2026-06-12 18:51:05
    ##  5 dacomp_res_nperm=1e+04_seed=42.rds     file        1.69M 2026-06-12 18:51:07
    ##  6 dacomp_res_nperm=1e+05_seed=42.rds     file       15.16M 2026-06-12 18:51:10
    ##  7 dacomp_res_nperm=1e+06_seed=42.rds     file      145.45M 2026-06-12 18:51:22
    ##  8 dacomp_res_nperm=1e+07_seed=42.rds     file        1.43G 2026-06-12 18:56:48
    ##  9 dacomp_runtime.csv                     file          345 2026-07-06 19:29:14
    ## 10 dacomp_runtime_nperm=1e+03_seed=42.rds file          224 2026-06-12 18:58:06
    ## # ℹ 28 more rows
