…
#### permApprox refinement with constraint

    ##    Min. 1st Qu.  Median    Mean 3rd Qu.    Max. 
    ##  0.0010  1.0000  1.0000  0.9678  1.0000  1.0000

    ##    Min. 1st Qu.  Median    Mean 3rd Qu.    Max. 
    ##       1       1       1       1       1       1

## Files written

These files have been written to the target directory,
`data/10_networks`:

    ## # A tibble: 25 × 4
    ##    path                           type         size modification_time  
    ##    <fs::path>                     <fct> <fs::bytes> <dttm>             
    ##  1 assoPerm_ebf.bmat              file         209M 2026-06-24 16:30:32
    ##  2 assoPerm_ebf.desc.txt          file           90 2026-06-24 16:30:29
    ##  3 comp_ebf_GPD_constr_BH.rds     file         191K 2026-06-25 10:03:18
    ##  4 comp_ebf_GPD_constr_noBH.rds   file         190K 2026-06-25 10:03:18
    ##  5 comp_ebf_GPD_noConstr_BH.rds   file         182K 2026-06-25 10:03:18
    ##  6 comp_ebf_GPD_noConstr_noBH.rds file         182K 2026-06-25 14:48:08
    ##  7 comp_ebf_main.rds              file         181K 2026-06-25 10:03:18
    ##  8 comp_ebf_main_BH.rds           file         181K 2026-06-25 14:33:14
    ##  9 comp_ebf_main_noBH.rds         file         181K 2026-06-25 14:26:59
    ## 10 counts_rel_alrEM.rds           file         518K 2026-06-25 20:43:46
    ## # ℹ 15 more rows
