…
## Files Written

    ## # A tibble: 244 × 4
    ##    path                            type         size modification_time  
    ##    <fs::path>                      <fct> <fs::bytes> <dttm>             
    ##  1 comp_ebf_main.rds               file      180.95K 2026-06-25 10:03:18
    ##  2 counts_ebf_rel_bayesMult.rds    file      722.02K 2026-06-27 08:17:18
    ##  3 net_ebf_corshrink_bayesMult.rds file        1.08M 2026-06-27 11:00:00
    ##  4 net_ebf_corshrink_multRepl.rds  file      620.74K 2026-06-27 13:50:38
    ##  5 net_ebf_main.rds                file        20.8M 2026-06-27 11:05:31
    ##  6 net_ebf_rhoshrink_bayesMult.rds file        1.49M 2026-06-27 10:43:59
    ##  7 net_ebf_rhoshrink_multRepl.rds  file      916.18K 2026-06-27 12:11:52
    ##  8 net_ebf_slr_r2.rds              file       75.55M 2026-06-27 08:36:00
    ##  9 net_ebf_spieceasi.rds           file        20.8M 2026-06-26 10:59:56
    ## 10 net_ebf_spieceasi_bayesMult.rds file       25.73M 2026-06-27 10:05:27
    ## # ℹ 234 more rows
