…
### Quick numerical summary

As a first overview, the simulation results are summarized numerically
by setting, starting exceedance level, and method. The reported
quantities include the number of successful threshold selections, the
median and mean signed threshold error, and the median absolute error.

    ## # A tibble: 72 × 8
    ##    setting_label exceed0_label  stepsize_label method_label  n_ok median_diff mean_diff median_abs_diff
    ##    <fct>         <fct>          <fct>          <fct>        <int>       <dbl>     <dbl>           <dbl>
    ##  1 Weibull-GPD   exceed0 = 1000 stepsize = 1   FTR           1000     -0.0797   -0.243           0.0803
    ##  2 Weibull-GPD   exceed0 = 1000 stepsize = 1   FwdStop       1000      0.386     0.754           0.427 
    ##  3 Weibull-GPD   exceed0 = 1000 stepsize = 1   robFTR        1000     -0.0661   -0.205           0.0676
    ##  4 Weibull-GPD   exceed0 = 1000 stepsize = 1   GoF-CP        1000     -0.0797   -0.243           0.0803
    ##  5 Weibull-GPD   exceed0 = 1000 stepsize = 1   RPC           1000     -0.0497    0.119           0.0670
    ##  6 Weibull-GPD   exceed0 = 1000 stepsize = 1   Shape-Var     1000      0.141     0.0815          0.262 
    ##  7 Weibull-GPD   exceed0 = 1000 stepsize = 10  FTR           1000     -0.0596   -0.203           0.0613
    ##  8 Weibull-GPD   exceed0 = 1000 stepsize = 10  FwdStop       1000      0.406     0.787           0.448 
    ##  9 Weibull-GPD   exceed0 = 1000 stepsize = 10  robFTR         999     -0.0525   -0.117           0.0603
    ## 10 Weibull-GPD   exceed0 = 1000 stepsize = 10  GoF-CP        1000     -0.0596   -0.203           0.0613
    ## # ℹ 62 more rows
…
